<svg xmlns="http://www.w3.org/2000/svg" xmlns:xlink="http://www.w3.org/1999/xlink" width="155" height="20">
    <style type="text/css">
          <![CDATA[
            @keyframes fadeout {
              0 % { visibility: visible; opacity: 1; }
              40% { visibility: visible; opacity: 1; }
              50% { visibility: hidden; opacity: 0; }
              90% { visibility: hidden; opacity: 0; }
              100% { visibility: visible; opacity: 1; }
            }
            @keyframes fadein {
              0% { visibility: hidden; opacity: 0; }
              40% { visibility: hidden; opacity: 0; }
              50% { visibility: visible; opacity: 1; }
              90% { visibility: visible; opacity: 1; }
              100% { visibility: hidden; opacity: 0; }
            }
            .linecoverage {
                animation-duration: 10s;
                animation-name: fadeout;
                animation-iteration-count: infinite;
            }
            .branchcoverage {
                animation-duration: 10s;
                animation-name: fadein;
                animation-iteration-count: infinite;
            }
          ]]>
    </style>
    <title>Code coverage</title>
    <defs>
        <linearGradient id="gradient" x2="0" y2="100%">
            <stop offset="0" stop-color="#bbb" stop-opacity=".1"/>
            <stop offset="1" stop-opacity=".1"/>
        </linearGradient>

        <linearGradient id="green" x2="0" y2="100%">
            <stop offset="0" stop-color="#00A410"/>
            <stop offset="1" stop-color="#53FF63"/>
        </linearGradient>
        <linearGradient id="red" x2="0" y2="100%">
            <stop offset="0" stop-color="#C00"/>
            <stop offset="1" stop-color="#FF2525"/>
        </linearGradient>
        <linearGradient id="gray" x2="0" y2="100%">
            <stop offset="0" stop-color="#9B9B9B"/>
            <stop offset="1" stop-color="#F3F3F3"/>
        </linearGradient>
        
        <mask id="mask">
            <rect width="155" height="20" rx="3" fill="#fff"/>
        </mask>
        <g id="icon">
            <path style="fill:url(#green);" d="M205,202.5 l0,-200 a200,200 0 1,1 -117.558,361.803 z"/>
            <path style="fill:url(#red);" d="M200,202.5 l-117.558,161.803 a200,200 0 0,1 0,-323.607 z"/>
            <path style="fill:url(#gray);" d="M202.5,200 l-117.558,-161.803 a200,200 0 0,1 117.558,-38.196 z"/>
        </g>
    </defs>
    
    <g mask="url(#mask)">
        <rect x="0" y="0" width="90" height="20" fill="#444"/>
        <rect x="90" y="0" width="20" height="20" fill="#c00"/>
        <rect x="110" y="0" width="45" height="20" fill="#00B600"/>
        <rect x="0" y="0" width="155" height="20" fill="url(#gradient)"/>
    </g>

    <g>
        <path class="" stroke="#fff" d="M94 6.5 h12 M94 10.5 h12 M94 14.5 h12"/>
        
    </g>
    
    <g fill="#fff" text-anchor="middle" font-family="Verdana,Arial,Geneva,sans-serif" font-size="11">
        <a xlink:href="https://github.com/danielpalme/ReportGenerator" target="_top">
            <title>Generated by: ReportGenerator 4.8.13.0</title>
            <use xlink:href="#icon" transform="translate(3,2) scale(.04)"/>
        </a>

        <text x="53" y="15" fill="#010101" fill-opacity=".3">Coverage</text>
        <text x="53" y="14" fill="#fff">Coverage</text>
        <text class="" x="132.5" y="15" fill="#010101" fill-opacity=".3">12.2%</text><text class="" x="132.5" y="14">12.2%</text>
        
    </g>

    <g>
        <rect class="" x="90" y="0" width="65" height="20" fill-opacity="0"><title>Line coverage</title></rect>
        
    </g>
</svg>