{
    "name": "Nonatomic.SOT.Examples",
    "rootNamespace": "",
    "references": [
        "GUID:6055be8ebefd69e48b49212b09b47b2f",
        "GUID:e5c4ae96a8c4e81488829a23b78b143c"
    ],
    "includePlatforms": [],
    "excludePlatforms": [],
    "allowUnsafeCode": false,
    "overrideReferences": false,
    "precompiledReferences": [],
    "autoReferenced": true,
    "defineConstraints": [],
    "versionDefines": [],
    "noEngineReferences": false
}