%YAML 1.1
%TAG !u! tag:unity3d.com,2011:
--- !u!114 &11400000
MonoBehaviour:
  m_ObjectHideFlags: 0
  m_CorrespondingSourceObject: {fileID: 0}
  m_PrefabInstance: {fileID: 0}
  m_PrefabAsset: {fileID: 0}
  m_GameObject: {fileID: 0}
  m_Enabled: 1
  m_EditorHideFlags: 0
  m_Script: {fileID: 11500000, guid: c6d7da81d18547568386d6245aa0cf15, type: 3}
  m_Name: Light one is on
  m_EditorClassIdentifier: 
  enabled: 1
  logger: {fileID: 0}
  value: 0
  defaultValue: 0
  useDefault: 1
  constraints: []
