%YAML 1.1
%TAG !u! tag:unity3d.com,2011:
--- !u!114 &11400000
MonoBehaviour:
  m_ObjectHideFlags: 0
  m_CorrespondingSourceObject: {fileID: 0}
  m_PrefabInstance: {fileID: 0}
  m_PrefabAsset: {fileID: 0}
  m_GameObject: {fileID: 0}
  m_Enabled: 1
  m_EditorHideFlags: 0
  m_Script: {fileID: 11500000, guid: 2a869dd9a6ec43fa8b127d3dbb61f801, type: 3}
  m_Name: Signal
  m_EditorClassIdentifier: 
  enabled: 0
  includeTime: 0
  messageColor:
    serializedVersion: 2
    rgba: 4291940817
  tagColor:
    serializedVersion: 2
    rgba: 4278255429
  tag: Signal
  keyWordFilter: []
  colorFilter: []
