{
    "name": "Nonatomic.SOT.Editor",
    "rootNamespace": "",
    "references": [
        "GUID:e5c4ae96a8c4e81488829a23b78b143c",
        "GUID:343deaaf83e0cee4ca978e7df0b80d21",
        "GUID:27619889b8ba8c24980f49ee34dbb44a",
        "GUID:0acc523941302664db1f4e527237feb3"
    ],
    "includePlatforms": [
        "Editor"
    ],
    "excludePlatforms": [],
    "allowUnsafeCode": false,
    "overrideReferences": false,
    "precompiledReferences": [],
    "autoReferenced": true,
    "defineConstraints": [],
    "versionDefines": [],
    "noEngineReferences": false
}