{
  "name": "Nonatomic.SOT.Tests.EditMode",
  "rootNamespace": "",
  "references": [
    "UnityEngine.TestRunner",
    "UnityEditor.TestRunner",
    "SOT.Runtime",
    "Nonatomic.SOT.Runtime"
  ],
  "includePlatforms": [
    "Editor"
  ],
  "excludePlatforms": [],
  "allowUnsafeCode": false,
  "overrideReferences": true,
  "precompiledReferences": [
    "nunit.framework.dll"
  ],
  "autoReferenced": false,
  "defineConstraints": [
    "UNITY_INCLUDE_TESTS"
  ],
  "versionDefines": [],
  "noEngineReferences": false
}